Sample      Type  Filename
GSM979903   1     GSM979903_k1.CEL.gz
GSM979904   1     GSM979904_k2.CEL.gz
GSM979905   1     GSM979905_k3.CEL.gz
GSM979906   1     GSM979906_k4.CEL.gz
GSM979907   1     GSM979907_k5.CEL.gz
GSM979908   1     GSM979908_k6.CEL.gz
GSM1201872  2     GSM1201872_pv_v1.CEL.gz
GSM1201873  2     GSM1201873_pv_v3.CEL.gz
GSM1201874  2     GSM1201874_pv_v4.CEL.gz
